…
#####We would like to apply the idea of movie rating to book classification to help parents and children choose age-appropriate books.

##1. Overview of Sentiment Analysis

#####When human readers approach a text, we use our understanding of the emotional intent of words to infer whether a section of text is positive or negative, or perhaps characterized by some other more nuanced emotion like surprise or disgust. In this part, we will do some basic sentiment analysis. 

###1.1 Use NRC lexicon

```r
get_sentiments('nrc')
```

```
## # A tibble: 13,901 x 2
##    word        sentiment
##    <chr>       <chr>    
##  1 abacus      trust    
##  2 abandon     fear     
##  3 abandon     negative 
##  4 abandon     sadness  
##  5 abandoned   anger    
##  6 abandoned   fear     
##  7 abandoned   negative 
##  8 abandoned   sadness  
##  9 abandonment anger    
## 10 abandonment fear     
## # ... with 13,891 more rows
```
…
```r
count(sentiments, author, sentiment)
```

```
## # A tibble: 30 x 3
##    author sentiment        n
##    <fct>  <chr>        <int>
##  1 EAP    anger         2962
##  2 EAP    anticipation  3982
##  3 EAP    disgust       2261
##  4 EAP    fear          4194
##  5 EAP    joy           3302
##  6 EAP    negative      7659
##  7 EAP    positive      9291
##  8 EAP    sadness       3938
##  9 EAP    surprise      2244
## 10 EAP    trust         5116
## # ... with 20 more rows
```
…
#####We found that Mary Shelley used positive words almost as much as negative ones. She used "love" a lot as a positive word. "Death” is clearly her most common negative word.

#####We have a question now. Will the result be different if we use other lexicons?

#####Let's change from "nrc" to "bing" to get more information about sentiment analysis.

###1.2 Use Bing Lexicon


```r
get_sentiments('bing')
```

```
## # A tibble: 6,788 x 2
##    word        sentiment
##    <chr>       <chr>    
##  1 2-faced     negative 
##  2 2-faces     negative 
##  3 a+          positive 
##  4 abnormal    negative 
##  5 abolish     negative 
##  6 abominable  negative 
##  7 abominably  negative 
##  8 abominate   negative 
##  9 abomination negative 
## 10 abort       negative 
## # ... with 6,778 more rows
```
…
#####From above plot, we can find that she used "love" a lot as a positive word. "Death” is clearly her most common negative word.To my surprise, the most used negative and positive words are the same with the NRC lexicon analysis. She used positive words almost as much as negative ones. 

#####After comparing the results generated by different lexicons, I decided to use "bing" lexicon to do further analysis. Next, we will only study "negative" words to find some clues about the theroy of book classification.

##2. Comparing negativity


```r
bing_neg <- filter(get_sentiments('bing'), sentiment == "negative")
bing_neg
```

```
## # A tibble: 4,782 x 2
##    word        sentiment
##    <chr>       <chr>    
##  1 2-faced     negative 
##  2 2-faces     negative 
##  3 abnormal    negative 
##  4 abolish     negative 
##  5 abominable  negative 
##  6 abominably  negative 
##  7 abominate   negative 
##  8 abomination negative 
##  9 abort       negative 
## 10 aborted     negative 
## # ... with 4,772 more rows
```
…
```r
count(negative, word, sort = TRUE)
```

```
## # A tibble: 2,403 x 2
##    word        n
##    <chr>   <int>
##  1 death     380
##  2 strange   283
##  3 fear      240
##  4 dark      223
##  5 dead      203
##  6 lost      181
##  7 object    165
##  8 doubt     159
##  9 fell      157
## 10 wild      157
## # ... with 2,393 more rows
```
…
#####The matrix `spooky_wrd_tm` is a sparse matrix with 19467 rows, corresponding to the 19467 ids (or originally, sentences) in the `spooky_wrd` dataframe, and 24941 columns corresponding to the total number of unique words in the `spooky_wrd` dataframe.  So each row of `spooky_wrd_tm` corresponds to one of the original sentences.  The value of the matrix at a certain position is then the number of occurences of that word (determined by the column) in this specific sentence (determined by the row).  Since most sentence/word pairings don't occur, the matrix is sparse meaning there are many zeros.

#####For LDA we must pick the number of possible topics. I tried 12, 10, 8 and 6. Finnally I chose 6.


```r
spooky_wrd_lda <- LDA(spooky_wrd_tm, k = 6, method = "VEM", control = list(seed = 1234))
spooky_wrd_topics <- tidy(spooky_wrd_lda, matrix = "beta")
spooky_wrd_topics
```

```
## # A tibble: 149,646 x 3
##    topic term         beta
##    <int> <chr>       <dbl>
##  1     1 content 0.000198 
##  2     2 content 0.000316 
##  3     3 content 0.000359 
##  4     4 content 0.0000223
##  5     5 content 0.0000294
##  6     6 content 0.000107 
##  7     1 idris   0.000499 
##  8     2 idris   0.000562 
##  9     3 idris   0.000467 
## 10     4 idris   0.000406 
## # ... with 149,636 more rows
```
…
